{
    "data":[
        {"nome": "Administrador", "email": "admin@admin.com", "senha": "admin321"},
        {"nome": "Professor X", "email": "profX@ifsp.br", "senha": "profX"},
        {"nome": "Professor Y", "email": "profY@ifsp.br", "senha": "profY"},
        {"nome": "Professor Z", "email": "profZ@ifsp.br", "senha": "profZ"}
    ]
}